"Resource/UI/InGameMainMenu.res"
{
	"InGameMainMenu"
	{
		"ControlName"			"Frame"
		"fieldName"				"InGameMainMenu"
		"xpos"					"0"
		"ypos"					"0"
		"wide"					"f0"
		"tall"					"f0"
		"autoResize"			"0"
		"pinCorner"				"0"
		"visible"				"1"
		"enabled"				"1"
		"tabPosition"			"0"
		"PaintBackgroundType"	"0"
	}
	
	"PnlBackground"
	{
		"ControlName"		"Panel"
		"fieldName"			"PnlBackground"
		"xpos"				"0"
		"ypos"				"105"
		"zpos"				"-1"
		"wide"				"f0"
		"tall"				"260"
		"visible"			"0"
		"enabled"			"1"
		"fillColor"			"0 0 0 255"
	}
			
	"BtnReturnToGame"
	{
		"ControlName"			"BaseModHybridButton"
		"fieldName"				"BtnReturnToGame"
		"xpos"					"100"
		"ypos"					"148"
		"wide"					"220"
		"tall"					"20"
		"autoResize"			"1"
		"pinCorner"				"0"
		"visible"				"1"
		"enabled"				"1"
		"tabPosition"			"1"
		"navUp"					"BtnExitToMainMenu"
		"navDown"				"BtnOptions"
		"labelText"				"#L4D360UI_InGameMainMenu_ReturnToGame"
		"tooltiptext"			"#L4D360UI_InGameMainMenu_ReturnToGame_Tip"
		"style"					"MainMenuButton"
		"command"				"ReturnToGame"
		"ActivationType"		"1"
	}

	"BtnOptions"
	{
		"ControlName"			"BaseModHybridButton"
		"fieldName"				"BtnOptions"
		"xpos"					"100"
		"ypos"					"260"
		"wide"					"220"
		"tall"					"20"
		"autoResize"			"1"
		"pinCorner"				"0"
		"visible"				"1"
		"enabled"				"1"
		"tabPosition"			"0"
		"navUp"					"BtnReturnToGame"
		"navDown"				"BtnExitToMainMenu"
		"labelText"				"#L4D360UI_MainMenu_Options"
		"tooltiptext"			"#L4D360UI_MainMenu_Options_Tip"
		"style"					"MainMenuButton"
		"command"				"FlmOptionsFlyout"
		"ActivationType"		"1"
	}

	"BtnExitToMainMenu"
	{
		"ControlName"			"BaseModHybridButton"
		"fieldName"				"BtnExitToMainMenu"
		"xpos"					"100"
		"ypos"					"297"
		"wide"					"220"
		"tall"					"20"
		"autoResize"			"1"
		"pinCorner"				"0"
		"visible"				"1"
		"enabled"				"1"
		"tabPosition"			"0"
		"navUp"					"BtnOptions"
		"navDown"				"BtnReturnToGame"
		"labelText"				"#L4D360UI_InGameMainMenu_ExitToMainMenu"
		"tooltiptext"			"#L4D360UI_InGameMainMenu_ExitToMainMenu_Tip"
		"style"					"MainMenuButton"
		"command"				"ExitToMainMenu"
		"ActivationType"		"1"
	}

	"FlmOptionsFlyout"
	{
		"ControlName"			"FlyoutMenu"
		"fieldName"				"FlmOptionsFlyout"
		"visible"				"0"
		"wide"					"0"
		"tall"					"0"
		"zpos"					"3"
		"InitialFocus"			"BtnVideo"
		"ResourceFile"			"resource/UI/basemodui/OptionsFlyout.res"
	}
}
